The Game is Afoot & Poems of Mihai Eminescu
…
tidy_sherlock <- sherlock %>%
  mutate(line = row_number()) %>%
  unnest_tokens(word, text) %>%
  anti_join(stop_words) %>%
  filter(word != "holmes")

tidy_sherlock %>%
  count(word, sort = TRUE)

## # A tibble: 7,437 x 2
##    word        n
##    <chr>   <int>
##  1 time      151
##  2 door      144
##  3 matter    125
##  4 house     123
##  5 hand      120
##  6 night     114
##  7 heard     113
##  8 found     108
##  9 day       106
## 10 morning   102
## # ... with 7,427 more rows
…
tidy_poezii <- poezii %>%
  mutate(line = row_number()) %>%
  unnest_tokens(word, text) %>%
  anti_join(stopwords_ro) %>%
  filter(word != "poezii") %>%
  filter(!word %in% numbers) %>%
  filter(!poem %in% numbers) %>%
  filter(poem != "NOTE")

## Joining, by = "word"

tidy_poezii %>%
  count(word, sort = TRUE)

## # A tibble: 10,038 x 2
##    word      n
##    <chr> <int>
##  1 ochii   178
##  2 lume    175
##  3 dulce   167
##  4 viata   162
##  5 caci    146
##  6 stele   141
##  7 aur     140
##  8 lumea   131
##  9 luna    130
## 10 umbra   129
## # ... with 10,028 more rows
…
